Data wrangling in R
…
arrange()

arrange(garbage_collectors, `COMPANY NAME.`)

# A tibble: 76 × 8
     NO. `COMPANY NAME.`        `RECORDS AT KI…` `LOGISTIC CAPA…` `KCCA LICENSE`
   <dbl> <chr>                  <chr>            <chr>            <chr>         
 1    13 A & M Cleaning Servic… Seen             4-trucks         2012          
 2    65 Bamutaasa Cleaner's D… <NA>             Not Indicated    2012          
 3    56 Becca Contractors(U) … <NA>             <NA>             <NA>          
 4    43 Ben City(U) Ltd        <NA>             1-truck          2010          
 5     4 BIN –IT Services LTD   Seen             7-trucks         2012          
 6    30 Binned Africa (U)Ltd   <NA>             1- truck         Nil           
 7     5 Bins Kampala LTD       Seen             1- truck         2012          
 8    28 Bisons Consult Intern… <NA>             3- trucks,3- tr… 2012          
 9    75 Bukesa Urban Farmers,… <NA>             <NA>             Nil           
10    52 Capital cleaning serv… -                2-Forwards       <NA>          
# … with 66 more rows, and 3 more variables: `NEMA LICENSE` <chr>,
#   CONTACTS <chr>, `AREA OF OPERATION` <chr>
…
arrange() with the pipe

garbage_collectors %>% 
  arrange( `COMPANY NAME.`)

# A tibble: 76 × 8
     NO. `COMPANY NAME.`        `RECORDS AT KI…` `LOGISTIC CAPA…` `KCCA LICENSE`
   <dbl> <chr>                  <chr>            <chr>            <chr>         
 1    13 A & M Cleaning Servic… Seen             4-trucks         2012          
 2    65 Bamutaasa Cleaner's D… <NA>             Not Indicated    2012          
 3    56 Becca Contractors(U) … <NA>             <NA>             <NA>          
 4    43 Ben City(U) Ltd        <NA>             1-truck          2010          
 5     4 BIN –IT Services LTD   Seen             7-trucks         2012          
 6    30 Binned Africa (U)Ltd   <NA>             1- truck         Nil           
 7     5 Bins Kampala LTD       Seen             1- truck         2012          
 8    28 Bisons Consult Intern… <NA>             3- trucks,3- tr… 2012          
 9    75 Bukesa Urban Farmers,… <NA>             <NA>             Nil           
10    52 Capital cleaning serv… -                2-Forwards       <NA>          
# … with 66 more rows, and 3 more variables: `NEMA LICENSE` <chr>,
#   CONTACTS <chr>, `AREA OF OPERATION` <chr>
…
Which column names do we have

names(garbage_collectors)

[1] "NO."               "COMPANY NAME."     "RECORDS AT KITEZI"
[4] "LOGISTIC CAPACITY" "KCCA LICENSE"      "NEMA LICENSE"     
[7] "CONTACTS"          "AREA OF OPERATION"

select

garbage_collectors %>% 
  select(`COMPANY NAME.`,`KCCA LICENSE`,`RECORDS AT KITEZI`, 
         `LOGISTIC CAPACITY`, `AREA OF OPERATION`)

# A tibble: 76 × 5
   `COMPANY NAME.`              `KCCA LICENSE` `RECORDS AT KI…` `LOGISTIC CAPA…`
   <chr>                        <chr>          <chr>            <chr>           
 1 Orient City Cleaners         2012           Seen             3-trucks        
 2 Urban Cleaners LTD           2012           Seen             4-trucks        
 3 City Jua Kali Traders LTD    2012           Seen             2- trucks       
 4 BIN –IT Services LTD         2012           Seen             7-trucks        
 5 Bins Kampala LTD             2012           Seen             1- truck        
 6 Home Care General Enterpris… 2011           Seen             1- truck        
 7 Euro Refuse Management Ltd   2012           Seen             2-trucks        
 8 Uganda Skip Services         2011           Seen             2- trucks       
 9 Green Hope Uganda            Nil            Seen             2-trucks        
10 Nusonic LTD                  2012           Seen             4-trucks        
# … with 66 more rows, and 1 more variable: `AREA OF OPERATION` <chr>

rename

garbage_collectors %>% 
  select(`COMPANY NAME.`,`KCCA LICENSE`,`RECORDS AT KITEZI`, 
         `LOGISTIC CAPACITY`, `AREA OF OPERATION`) %>%
  rename("company_name" = `COMPANY NAME.`,
      "kcca_license" = `KCCA LICENSE`,
      "logistic_capacity" = `LOGISTIC CAPACITY`,
      "area_of_operation" = `AREA OF OPERATION`,
      "records_at_kitezi" = `RECORDS AT KITEZI`) 

# A tibble: 76 × 5
   company_name  kcca_license records_at_kite… logistic_capaci… area_of_operati…
   <chr>         <chr>        <chr>            <chr>            <chr>           
 1 Orient City … 2012         Seen             3-trucks         Makindye, Nakaw…
 2 Urban Cleane… 2012         Seen             4-trucks         Makerere zones,…
 3 City Jua Kal… 2012         Seen             2- trucks        Old Port Bell R…
 4 BIN –IT Serv… 2012         Seen             7-trucks         Organizations,I…
 5 Bins Kampala… 2012         Seen             1- truck         Kampala, Makind…
 6 Home Care Ge… 2011         Seen             1- truck         Kawempe I and I…
 7 Euro Refuse … 2012         Seen             2-trucks         Nakawa Division…
 8 Uganda Skip … 2011         Seen             2- trucks        Makindye, Nakaw…
 9 Green Hope U… Nil          Seen             2-trucks         Kiira Town Coun…
10 Nusonic LTD   2012         Seen             4-trucks         Kawempe, Makind…
# … with 66 more rows

mutate

garbage_collectors %>% 
  select(`COMPANY NAME.`,`KCCA LICENSE`,`RECORDS AT KITEZI`, 
         `LOGISTIC CAPACITY`, `AREA OF OPERATION`) %>%
  rename("company_name" = `COMPANY NAME.`,
      "kcca_license" = `KCCA LICENSE`,
      "logistic_capacity" = `LOGISTIC CAPACITY`,
      "area_of_operation" = `AREA OF OPERATION`,
      "records_at_kitezi" = `RECORDS AT KITEZI`) %>% 
  mutate(records_exist = if_else(records_at_kitezi == "seen", "Yes", "No"))

# A tibble: 76 × 6
   company_name  kcca_license records_at_kite… logistic_capaci… area_of_operati…
   <chr>         <chr>        <chr>            <chr>            <chr>           
 1 Orient City … 2012         Seen             3-trucks         Makindye, Nakaw…
 2 Urban Cleane… 2012         Seen             4-trucks         Makerere zones,…
 3 City Jua Kal… 2012         Seen             2- trucks        Old Port Bell R…
 4 BIN –IT Serv… 2012         Seen             7-trucks         Organizations,I…
 5 Bins Kampala… 2012         Seen             1- truck         Kampala, Makind…
 6 Home Care Ge… 2011         Seen             1- truck         Kawempe I and I…
 7 Euro Refuse … 2012         Seen             2-trucks         Nakawa Division…
 8 Uganda Skip … 2011         Seen             2- trucks        Makindye, Nakaw…
 9 Green Hope U… Nil          Seen             2-trucks         Kiira Town Coun…
10 Nusonic LTD   2012         Seen             4-trucks         Kawempe, Makind…
# … with 66 more rows, and 1 more variable: records_exist <chr>

relocate

garbage_collectors %>% 
  select(`COMPANY NAME.`,`KCCA LICENSE`,`RECORDS AT KITEZI`, 
         `LOGISTIC CAPACITY`, `AREA OF OPERATION`) %>%
  rename("company_name" = `COMPANY NAME.`,
      "kcca_license" = `KCCA LICENSE`,
      "logistic_capacity" = `LOGISTIC CAPACITY`,
      "area_of_operation" = `AREA OF OPERATION`,
      "records_at_kitezi" = `RECORDS AT KITEZI`) %>% 
  mutate(records_exist = if_else(records_at_kitezi == "seen", "Yes", "No")) %>% 
  relocate(records_exist,.after = records_at_kitezi)

# A tibble: 76 × 6
   company_name     kcca_license records_at_kite… records_exist logistic_capaci…
   <chr>            <chr>        <chr>            <chr>         <chr>           
 1 Orient City Cle… 2012         Seen             No            3-trucks        
 2 Urban Cleaners … 2012         Seen             No            4-trucks        
 3 City Jua Kali T… 2012         Seen             No            2- trucks       
 4 BIN –IT Service… 2012         Seen             No            7-trucks        
 5 Bins Kampala LTD 2012         Seen             No            1- truck        
 6 Home Care Gener… 2011         Seen             No            1- truck        
 7 Euro Refuse Man… 2012         Seen             No            2-trucks        
 8 Uganda Skip Ser… 2011         Seen             No            2- trucks       
 9 Green Hope Ugan… Nil          Seen             No            2-trucks        
10 Nusonic LTD      2012         Seen             No            4-trucks        
# … with 66 more rows, and 1 more variable: area_of_operation <chr>

Group by

Step 1: Identify the column you want to group by

garbage_collectors %>% 
  group_by(`LOGISTIC CAPACITY`)

# A tibble: 76 × 8
# Groups:   LOGISTIC CAPACITY [29]
     NO. `COMPANY NAME.`        `RECORDS AT KI…` `LOGISTIC CAPA…` `KCCA LICENSE`
   <dbl> <chr>                  <chr>            <chr>            <chr>         
 1     1 Orient City Cleaners   Seen             3-trucks         2012          
 2     2 Urban Cleaners LTD     Seen             4-trucks         2012          
 3     3 City Jua Kali Traders… Seen             2- trucks        2012          
 4     4 BIN –IT Services LTD   Seen             7-trucks         2012          
 5     5 Bins Kampala LTD       Seen             1- truck         2012          
 6     6 Home Care General Ent… Seen             1- truck         2011          
 7     7 Euro Refuse Managemen… Seen             2-trucks         2012          
 8     8 Uganda Skip Services   Seen             2- trucks        2011          
 9     9 Green Hope Uganda      Seen             2-trucks         Nil           
10    10 Nusonic LTD            Seen             4-trucks         2012          
# … with 66 more rows, and 3 more variables: `NEMA LICENSE` <chr>,
#   CONTACTS <chr>, `AREA OF OPERATION` <chr>

Step 2 summarise

garbage_collectors %>% 
  group_by(`LOGISTIC CAPACITY`) %>% 
  summarise(number = n())

# A tibble: 29 × 2
   `LOGISTIC CAPACITY`    number
   <chr>                   <int>
 1 -                           3
 2 1- truck                    9
 3 1-Elf                       1
 4 1-truck                     4
 5 1-truck 1-brush cutter      1
 6 2 trucks,1 renting          1
 7 2- trucks                   2
 8 2- trucks.                  1
 9 2-forward 1-elf             1
10 2-Forwards                  1
# … with 19 more rows

Step 3: You can do other computation

garbage_collectors %>% 
  group_by(`LOGISTIC CAPACITY`) %>% 
  summarise(number = n()) %>% 
  arrange(desc(number))

# A tibble: 29 × 2
   `LOGISTIC CAPACITY` number
   <chr>                <int>
 1 Not Indicated           18
 2 1- truck                 9
 3 2-trucks                 5
 4 4-trucks                 5
 5 1-truck                  4
 6 <NA>                     4
 7 -                        3
 8 3-trucks                 3
 9 Nil                      3
10 2- trucks                2
# … with 19 more rows
…
